pattern/93kvt/vt_scan/dut.vcd
$date
	Tue Feb 22 09:47:00 2022
$end
$version
	ModelSim Version 10.5b
$end
$timescale
	1ps
$end

$scope module test_wrapper $end

$scope module vtw_logger $end
$var integer 32 ! fail_number $end
$var integer 32 " compare_number $end
$upscope $end
$var wire 1 # SPI_MOSI $end
$var wire 1 $ SPI_MISO $end
$var wire 1 % SPI_CS $end
$var wire 1 & SPI_CLK $end
$var wire 1 ' I2C_SCL $end
$var wire 1 ( I2C_SDA $end
$var wire 1 ) JTAG_TCK $end
$var wire 1 * JTAG_TMS $end
$var wire 1 + JTAG_TDI $end
$var wire 1 , JTAG_TDO $end
$var wire 1 - JTAG_TRSTN $end
$var wire 1 . SWDIO $end
$var wire 1 / SWCLK $end
$var wire 1 0 clock $end
$var wire 1 1 reset $end
$var wire 1 2 scan_in0 $end
$var wire 1 3 scan_in1 $end
$var wire 1 4 scan_in2 $end
$var wire 1 5 scan_in3 $end
$var wire 1 6 scan_out0 $end
$var wire 1 7 scan_out1 $end
$var wire 1 8 scan_out2 $end
$var wire 1 9 scan_out3 $end

$scope module tester $end

$scope module Pattern0 $end
$var integer 32 : cycle_number $end
$var integer 32 ; repeat_count $end
$var integer 32 < vector_number $end
$var reg 2048 = waveform_table [0:2047] $end
$var reg 2048 > vector_comment [0:2047] $end
$var reg 400 ? vector_subr [0:399] $end
$var reg 2048 @ pat_name [2047:0] $end
$upscope $end
$var reg 1 A SPI_MOSI_driver $end
$var reg 1 B SPI_MOSI_driver_data $end
$var reg 1 C SPI_MOSI_expected $end
$var reg 1 D SPI_MOSI_comparator $end
$var reg 1 E SPI_MISO_driver $end
$var reg 1 F SPI_MISO_driver_data $end
$var reg 1 G SPI_MISO_expected $end
$var reg 1 H SPI_MISO_comparator $end
$var reg 1 I SPI_CS_driver $end
$var reg 1 J SPI_CS_driver_data $end
$var reg 1 K SPI_CS_expected $end
$var reg 1 L SPI_CS_comparator $end
$var reg 1 M SPI_CLK_driver $end
$var reg 1 N SPI_CLK_driver_data $end
$var reg 1 O SPI_CLK_expected $end
$var reg 1 P SPI_CLK_comparator $end
$var reg 1 Q I2C_SCL_driver $end
$var reg 1 R I2C_SCL_driver_data $end
$var reg 1 S I2C_SCL_expected $end
$var reg 1 T I2C_SCL_comparator $end
$var reg 1 U I2C_SDA_driver $end
$var reg 1 V I2C_SDA_driver_data $end
$var reg 1 W I2C_SDA_expected $end
$var reg 1 X I2C_SDA_comparator $end
$var reg 1 Y JTAG_TCK_driver $end
$var reg 1 Z JTAG_TCK_driver_data $end
$var reg 1 [ JTAG_TCK_expected $end
$var reg 1 \ JTAG_TCK_comparator $end
$var reg 1 ] JTAG_TMS_driver $end
$var reg 1 ^ JTAG_TMS_driver_data $end
$var reg 1 _ JTAG_TMS_expected $end
$var reg 1 ` JTAG_TMS_comparator $end
$var reg 1 a JTAG_TDI_driver $end
$var reg 1 b JTAG_TDI_driver_data $end
$var reg 1 c JTAG_TDI_expected $end
$var reg 1 d JTAG_TDI_comparator $end
$var reg 1 e JTAG_TDO_driver $end
$var reg 1 f JTAG_TDO_driver_data $end
$var reg 1 g JTAG_TDO_expected $end
$var reg 1 h JTAG_TDO_comparator $end
$var reg 1 i JTAG_TRSTN_driver $end
$var reg 1 j JTAG_TRSTN_driver_data $end
$var reg 1 k JTAG_TRSTN_expected $end
$var reg 1 l JTAG_TRSTN_comparator $end
$var reg 1 m SWDIO_driver $end
$var reg 1 n SWDIO_driver_data $end
$var reg 1 o SWDIO_expected $end
$var reg 1 p SWDIO_comparator $end
$var reg 1 q SWCLK_driver $end
$var reg 1 r SWCLK_driver_data $end
$var reg 1 s SWCLK_expected $end
$var reg 1 t SWCLK_comparator $end
$var reg 1 u clock_driver $end
$var reg 1 v clock_driver_data $end
$var reg 1 w clock_expected $end
$var reg 1 x clock_comparator $end
$var reg 1 y reset_driver $end
$var reg 1 z reset_driver_data $end
$var reg 1 { reset_expected $end
$var reg 1 | reset_comparator $end
$var reg 1 } scan_in0_driver $end
$var reg 1 ~ scan_in0_driver_data $end
$var reg 1 !! scan_in0_expected $end
$var reg 1 "! scan_in0_comparator $end
$var reg 1 #! scan_in1_driver $end
$var reg 1 $! scan_in1_driver_data $end
$var reg 1 %! scan_in1_expected $end
$var reg 1 &! scan_in1_comparator $end
$var reg 1 '! scan_in2_driver $end
$var reg 1 (! scan_in2_driver_data $end
$var reg 1 )! scan_in2_expected $end
$var reg 1 *! scan_in2_comparator $end
$var reg 1 +! scan_in3_driver $end
$var reg 1 ,! scan_in3_driver_data $end
$var reg 1 -! scan_in3_expected $end
$var reg 1 .! scan_in3_comparator $end
$var reg 1 /! scan_out0_driver $end
$var reg 1 0! scan_out0_driver_data $end
$var reg 1 1! scan_out0_expected $end
$var reg 1 2! scan_out0_comparator $end
$var reg 1 3! scan_out1_driver $end
$var reg 1 4! scan_out1_driver_data $end
$var reg 1 5! scan_out1_expected $end
$var reg 1 6! scan_out1_comparator $end
$var reg 1 7! scan_out2_driver $end
$var reg 1 8! scan_out2_driver_data $end
$var reg 1 9! scan_out2_expected $end
$var reg 1 :! scan_out2_comparator $end
$var reg 1 ;! scan_out3_driver $end
$var reg 1 <! scan_out3_driver_data $end
$var reg 1 =! scan_out3_expected $end
$var reg 1 >! scan_out3_comparator $end
$upscope $end
$upscope $end
$enddefinitions $end
#0
$dumpvars
0A
0B
xC
0D
1E
0F
xG
0H
1I
0J
xK
0L
1M
0N
xO
0P
1Q
1R
xS
0T
1U
1V
xW
0X
1Y
0Z
x[
0\
1]
0^
x_
0`
1a
0b
xc
0d
1e
0f
xg
0h
0i
0j
xk
0l
1m
1n
xo
0p
1q
1r
xs
0t
1u
0v
xw
0x
1y
1z
x{
0|
1}
1~
x!!
0"!
1#!
1$!
x%!
0&!
1'!
0(!
x)!
0*!
1+!
1,!
x-!
0.!
0/!
00!
x1!
02!
03!
04!
x5!
06!
07!
08!
x9!
0:!
0;!
0<!
x=!
0>!
b100000001100010011010100000000000000000000000000000000000000000000000000000000000000000000000000000000000000000000000000000000000000000000000000000000000000000000000000000000000000000000000000000000000000000000000000000000000000000000000000000000000000000000000000000000000000000000000000000000000000000000000000000000000000000000000000000000000000000000000000000000000000000000000000000000000000000000000000000000000000000000000000000000000000000000000000000000000000000000000000000000000000000000000000000000000000000000000000000000000000000000000000000000000000000000000000000000000000000000000000000000000000000000000000000000000000000000000000000000000000000000000000000000000000000000000000000000000000000000000000000000000000000000000000000000000000000000000000000000000000000000000000000000000000000000000000000000000000000000000000000000000000000000000000000000000000000000000000000000000000000000000000000000000000000000000000000000000000000000000000000000000000000000000000000000000000000000000000000000000000000000000000000000000000000000000000000000000000000000000000000000000000000000000000000000000000000000000000000000000000000000000000000000000000000000000000000000000000000000000000000000000000000000000000000000000000000000000000000000000000000000000000000000000000000000000000000000000000000000000000000000000000000000000000000000000000000000000000000000000000000000000000000000000000000000000000000000000000000000000000000000000000000000000000000000000000000000000000000000000000000000000000000000000000000000000000000000000000000000000000000000000000000000000000000000000000000000000000000000000000000000000000000000000000000000000000000000000000000000000000000000000000000000000000000000000000000000000000000000000000000000000000000000000000000000000000000000000000000000000000000000000000000000000000000000000000000000000000000000000000000000000000000000000000000000000000000000000000000000000000000000000000000000000000000000000000000000000000000000000000000000000000000000000000000000000000000000000000000000000000000000 >
b10000000000000000000000000000000000000000000000000000000000000000000000000000000000000000000000000000000000000000000000000000000000000000000000000000000000000000000000000000000000000000000000000000000000000000000000000000000000000000000000000000000000000000000000000000000000000000000000000000000000000000000000000000000000000000000000000000000000000000000000000000000000000000000000000000000000000 ?
b111011101110110011101000101111101110011011000110110000101101110010111110100010100110001010111110101010000110001 =
b1110011011000110110000101101110 @
b0 !
b0 "
b0 <
b1 ;
b0 :
z#
0$
0%
0&
1'
1(
0)
0*
0+
0,
z-
1.
1/
00
11
12
13
04
15
06
07
08
09
$end
#50000
1v
10
#55000
b1 "
b10 "
b11 "
b100 "
12!
16!
1:!
1>!
01!
05!
09!
0=!
#57000
0>!
0:!
06!
02!
x=!
x9!
x5!
x1!
#100000
b1 :
b1 <
b100000001100100011010100000000000000000000000000000000000000000000000000000000000000000000000000000000000000000000000000000000000000000000000000000000000000000000000000000000000000000000000000000000000000000000000000000000000000000000000000000000000000000000000000000000000000000000000000000000000000000000000000000000000000000000000000000000000000000000000000000000000000000000000000000000000000000000000000000000000000000000000000000000000000000000000000000000000000000000000000000000000000000000000000000000000000000000000000000000000000000000000000000000000000000000000000000000000000000000000000000000000000000000000000000000000000000000000000000000000000000000000000000000000000000000000000000000000000000000000000000000000000000000000000000000000000000000000000000000000000000000000000000000000000000000000000000000000000000000000000000000000000000000000000000000000000000000000000000000000000000000000000000000000000000000000000000000000000000000000000000000000000000000000000000000000000000000000000000000000000000000000000000000000000000000000000000000000000000000000000000000000000000000000000000000000000000000000000000000000000000000000000000000000000000000000000000000000000000000000000000000000000000000000000000000000000000000000000000000000000000000000000000000000000000000000000000000000000000000000000000000000000000000000000000000000000000000000000000000000000000000000000000000000000000000000000000000000000000000000000000000000000000000000000000000000000000000000000000000000000000000000000000000000000000000000000000000000000000000000000000000000000000000000000000000000000000000000000000000000000000000000000000000000000000000000000000000000000000000000000000000000000000000000000000000000000000000000000000000000000000000000000000000000000000000000000000000000000000000000000000000000000000000000000000000000000000000000000000000000000000000000000000000000000000000000000000000000000000000000000000000000000000000000000000000000000000000000000000000000000000000000000000000000000000000000000000000000000000000000000000000 >
0v
00
#150000
1v
10
#155000
b101 "
b110 "
b111 "
b1000 "
12!
16!
1:!
1>!
01!
05!
09!
0=!
#157000
0>!
0:!
06!
02!
x=!
x9!
x5!
x1!
#200000
b10 :
b10 <
b100000001100110011010100000000000000000000000000000000000000000000000000000000000000000000000000000000000000000000000000000000000000000000000000000000000000000000000000000000000000000000000000000000000000000000000000000000000000000000000000000000000000000000000000000000000000000000000000000000000000000000000000000000000000000000000000000000000000000000000000000000000000000000000000000000000000000000000000000000000000000000000000000000000000000000000000000000000000000000000000000000000000000000000000000000000000000000000000000000000000000000000000000000000000000000000000000000000000000000000000000000000000000000000000000000000000000000000000000000000000000000000000000000000000000000000000000000000000000000000000000000000000000000000000000000000000000000000000000000000000000000000000000000000000000000000000000000000000000000000000000000000000000000000000000000000000000000000000000000000000000000000000000000000000000000000000000000000000000000000000000000000000000000000000000000000000000000000000000000000000000000000000000000000000000000000000000000000000000000000000000000000000000000000000000000000000000000000000000000000000000000000000000000000000000000000000000000000000000000000000000000000000000000000000000000000000000000000000000000000000000000000000000000000000000000000000000000000000000000000000000000000000000000000000000000000000000000000000000000000000000000000000000000000000000000000000000000000000000000000000000000000000000000000000000000000000000000000000000000000000000000000000000000000000000000000000000000000000000000000000000000000000000000000000000000000000000000000000000000000000000000000000000000000000000000000000000000000000000000000000000000000000000000000000000000000000000000000000000000000000000000000000000000000000000000000000000000000000000000000000000000000000000000000000000000000000000000000000000000000000000000000000000000000000000000000000000000000000000000000000000000000000000000000000000000000000000000000000000000000000000000000000000000000000000000000000000000000000000000000000000000 >
0v
00
#250000
1v
10
#255000
b1001 "
b1010 "
b1011 "
b1100 "
12!
16!
1:!
1>!
01!
05!
09!
0=!
#257000
0>!
0:!
06!
02!
x=!
x9!
x5!
x1!
#300000
b11 :
b11 <
b100000001101000011010100000000000000000000000000000000000000000000000000000000000000000000000000000000000000000000000000000000000000000000000000000000000000000000000000000000000000000000000000000000000000000000000000000000000000000000000000000000000000000000000000000000000000000000000000000000000000000000000000000000000000000000000000000000000000000000000000000000000000000000000000000000000000000000000000000000000000000000000000000000000000000000000000000000000000000000000000000000000000000000000000000000000000000000000000000000000000000000000000000000000000000000000000000000000000000000000000000000000000000000000000000000000000000000000000000000000000000000000000000000000000000000000000000000000000000000000000000000000000000000000000000000000000000000000000000000000000000000000000000000000000000000000000000000000000000000000000000000000000000000000000000000000000000000000000000000000000000000000000000000000000000000000000000000000000000000000000000000000000000000000000000000000000000000000000000000000000000000000000000000000000000000000000000000000000000000000000000000000000000000000000000000000000000000000000000000000000000000000000000000000000000000000000000000000000000000000000000000000000000000000000000000000000000000000000000000000000000000000000000000000000000000000000000000000000000000000000000000000000000000000000000000000000000000000000000000000000000000000000000000000000000000000000000000000000000000000000000000000000000000000000000000000000000000000000000000000000000000000000000000000000000000000000000000000000000000000000000000000000000000000000000000000000000000000000000000000000000000000000000000000000000000000000000000000000000000000000000000000000000000000000000000000000000000000000000000000000000000000000000000000000000000000000000000000000000000000000000000000000000000000000000000000000000000000000000000000000000000000000000000000000000000000000000000000000000000000000000000000000000000000000000000000000000000000000000000000000000000000000000000000000000000000000000000000000000000000000000000 >
0v
00
#350000
1v
10
#355000
b1101 "
b1110 "
b1111 "
b10000 "
12!
16!
1:!
1>!
01!
05!
09!
0=!
#357000
0>!
0:!
06!
02!
x=!
x9!
x5!
x1!
#400000
b100 :
b100 <
b100000001101010011010100000000000000000000000000000000000000000000000000000000000000000000000000000000000000000000000000000000000000000000000000000000000000000000000000000000000000000000000000000000000000000000000000000000000000000000000000000000000000000000000000000000000000000000000000000000000000000000000000000000000000000000000000000000000000000000000000000000000000000000000000000000000000000000000000000000000000000000000000000000000000000000000000000000000000000000000000000000000000000000000000000000000000000000000000000000000000000000000000000000000000000000000000000000000000000000000000000000000000000000000000000000000000000000000000000000000000000000000000000000000000000000000000000000000000000000000000000000000000000000000000000000000000000000000000000000000000000000000000000000000000000000000000000000000000000000000000000000000000000000000000000000000000000000000000000000000000000000000000000000000000000000000000000000000000000000000000000000000000000000000000000000000000000000000000000000000000000000000000000000000000000000000000000000000000000000000000000000000000000000000000000000000000000000000000000000000000000000000000000000000000000000000000000000000000000000000000000000000000000000000000000000000000000000000000000000000000000000000000000000000000000000000000000000000000000000000000000000000000000000000000000000000000000000000000000000000000000000000000000000000000000000000000000000000000000000000000000000000000000000000000000000000000000000000000000000000000000000000000000000000000000000000000000000000000000000000000000000000000000000000000000000000000000000000000000000000000000000000000000000000000000000000000000000000000000000000000000000000000000000000000000000000000000000000000000000000000000000000000000000000000000000000000000000000000000000000000000000000000000000000000000000000000000000000000000000000000000000000000000000000000000000000000000000000000000000000000000000000000000000000000000000000000000000000000000000000000000000000000000000000000000000000000000000000000000000000000000000 >
0v
00
#450000
1v
10
#455000
b10001 "
b10010 "
b10011 "
b10100 "
12!
16!
1:!
1>!
01!
05!
09!
0=!
#457000
0>!
0:!
06!
02!
x=!
x9!
x5!
x1!
#500000
b101 :
b101 <
b100000001101100011010100000000000000000000000000000000000000000000000000000000000000000000000000000000000000000000000000000000000000000000000000000000000000000000000000000000000000000000000000000000000000000000000000000000000000000000000000000000000000000000000000000000000000000000000000000000000000000000000000000000000000000000000000000000000000000000000000000000000000000000000000000000000000000000000000000000000000000000000000000000000000000000000000000000000000000000000000000000000000000000000000000000000000000000000000000000000000000000000000000000000000000000000000000000000000000000000000000000000000000000000000000000000000000000000000000000000000000000000000000000000000000000000000000000000000000000000000000000000000000000000000000000000000000000000000000000000000000000000000000000000000000000000000000000000000000000000000000000000000000000000000000000000000000000000000000000000000000000000000000000000000000000000000000000000000000000000000000000000000000000000000000000000000000000000000000000000000000000000000000000000000000000000000000000000000000000000000000000000000000000000000000000000000000000000000000000000000000000000000000000000000000000000000000000000000000000000000000000000000000000000000000000000000000000000000000000000000000000000000000000000000000000000000000000000000000000000000000000000000000000000000000000000000000000000000000000000000000000000000000000000000000000000000000000000000000000000000000000000000000000000000000000000000000000000000000000000000000000000000000000000000000000000000000000000000000000000000000000000000000000000000000000000000000000000000000000000000000000000000000000000000000000000000000000000000000000000000000000000000000000000000000000000000000000000000000000000000000000000000000000000000000000000000000000000000000000000000000000000000000000000000000000000000000000000000000000000000000000000000000000000000000000000000000000000000000000000000000000000000000000000000000000000000000000000000000000000000000000000000000000000000000000000000000000000000000000000000000000 >
0v
00
#550000
1v
10
#555000
b10101 "
b10110 "
b10111 "
b11000 "
12!
16!
1:!
1>!
01!
05!
09!
0=!
#557000
0>!
0:!
06!
02!
x=!
x9!
x5!
x1!
#600000
b110 :
b110 <
b100000001101110011010100000000000000000000000000000000000000000000000000000000000000000000000000000000000000000000000000000000000000000000000000000000000000000000000000000000000000000000000000000000000000000000000000000000000000000000000000000000000000000000000000000000000000000000000000000000000000000000000000000000000000000000000000000000000000000000000000000000000000000000000000000000000000000000000000000000000000000000000000000000000000000000000000000000000000000000000000000000000000000000000000000000000000000000000000000000000000000000000000000000000000000000000000000000000000000000000000000000000000000000000000000000000000000000000000000000000000000000000000000000000000000000000000000000000000000000000000000000000000000000000000000000000000000000000000000000000000000000000000000000000000000000000000000000000000000000000000000000000000000000000000000000000000000000000000000000000000000000000000000000000000000000000000000000000000000000000000000000000000000000000000000000000000000000000000000000000000000000000000000000000000000000000000000000000000000000000000000000000000000000000000000000000000000000000000000000000000000000000000000000000000000000000000000000000000000000000000000000000000000000000000000000000000000000000000000000000000000000000000000000000000000000000000000000000000000000000000000000000000000000000000000000000000000000000000000000000000000000000000000000000000000000000000000000000000000000000000000000000000000000000000000000000000000000000000000000000000000000000000000000000000000000000000000000000000000000000000000000000000000000000000000000000000000000000000000000000000000000000000000000000000000000000000000000000000000000000000000000000000000000000000000000000000000000000000000000000000000000000000000000000000000000000000000000000000000000000000000000000000000000000000000000000000000000000000000000000000000000000000000000000000000000000000000000000000000000000000000000000000000000000000000000000000000000000000000000000000000000000000000000000000000000000000000000000000000000000000000000 >
0v
00
#650000
1v
10
#655000
b11001 "
b11010 "
b11011 "
b11100 "
12!
16!
1:!
1>!
01!
05!
09!
0=!
#657000
0>!
0:!
06!
02!
x=!
x9!
x5!
x1!
#700000
b111 :
b111 <
b100000001110000011010100000000000000000000000000000000000000000000000000000000000000000000000000000000000000000000000000000000000000000000000000000000000000000000000000000000000000000000000000000000000000000000000000000000000000000000000000000000000000000000000000000000000000000000000000000000000000000000000000000000000000000000000000000000000000000000000000000000000000000000000000000000000000000000000000000000000000000000000000000000000000000000000000000000000000000000000000000000000000000000000000000000000000000000000000000000000000000000000000000000000000000000000000000000000000000000000000000000000000000000000000000000000000000000000000000000000000000000000000000000000000000000000000000000000000000000000000000000000000000000000000000000000000000000000000000000000000000000000000000000000000000000000000000000000000000000000000000000000000000000000000000000000000000000000000000000000000000000000000000000000000000000000000000000000000000000000000000000000000000000000000000000000000000000000000000000000000000000000000000000000000000000000000000000000000000000000000000000000000000000000000000000000000000000000000000000000000000000000000000000000000000000000000000000000000000000000000000000000000000000000000000000000000000000000000000000000000000000000000000000000000000000000000000000000000000000000000000000000000000000000000000000000000000000000000000000000000000000000000000000000000000000000000000000000000000000000000000000000000000000000000000000000000000000000000000000000000000000000000000000000000000000000000000000000000000000000000000000000000000000000000000000000000000000000000000000000000000000000000000000000000000000000000000000000000000000000000000000000000000000000000000000000000000000000000000000000000000000000000000000000000000000000000000000000000000000000000000000000000000000000000000000000000000000000000000000000000000000000000000000000000000000000000000000000000000000000000000000000000000000000000000000000000000000000000000000000000000000000000000000000000000000000000000000000000000000000000000000 >
0v
00
#750000
1v
10
#755000
b11101 "
b11110 "
b11111 "
b100000 "
12!
16!
1:!
1>!
01!
05!
09!
0=!
#757000
0>!
0:!
06!
02!
x=!
x9!
x5!
x1!
#800000
b1000 :
b1000 <
b100000001110010011010100000000000000000000000000000000000000000000000000000000000000000000000000000000000000000000000000000000000000000000000000000000000000000000000000000000000000000000000000000000000000000000000000000000000000000000000000000000000000000000000000000000000000000000000000000000000000000000000000000000000000000000000000000000000000000000000000000000000000000000000000000000000000000000000000000000000000000000000000000000000000000000000000000000000000000000000000000000000000000000000000000000000000000000000000000000000000000000000000000000000000000000000000000000000000000000000000000000000000000000000000000000000000000000000000000000000000000000000000000000000000000000000000000000000000000000000000000000000000000000000000000000000000000000000000000000000000000000000000000000000000000000000000000000000000000000000000000000000000000000000000000000000000000000000000000000000000000000000000000000000000000000000000000000000000000000000000000000000000000000000000000000000000000000000000000000000000000000000000000000000000000000000000000000000000000000000000000000000000000000000000000000000000000000000000000000000000000000000000000000000000000000000000000000000000000000000000000000000000000000000000000000000000000000000000000000000000000000000000000000000000000000000000000000000000000000000000000000000000000000000000000000000000000000000000000000000000000000000000000000000000000000000000000000000000000000000000000000000000000000000000000000000000000000000000000000000000000000000000000000000000000000000000000000000000000000000000000000000000000000000000000000000000000000000000000000000000000000000000000000000000000000000000000000000000000000000000000000000000000000000000000000000000000000000000000000000000000000000000000000000000000000000000000000000000000000000000000000000000000000000000000000000000000000000000000000000000000000000000000000000000000000000000000000000000000000000000000000000000000000000000000000000000000000000000000000000000000000000000000000000000000000000000000000000000000000000000000000 >
0v
00
#850000
1v
10
#855000
b100001 "
b100010 "
b100011 "
b100100 "
12!
16!
1:!
1>!
01!
05!
09!
0=!
#857000
0>!
0:!
06!
02!
x=!
x9!
x5!
x1!
#900000
b1001 :
b1001 <
b100000001100010011000000110101000000000000000000000000000000000000000000000000000000000000000000000000000000000000000000000000000000000000000000000000000000000000000000000000000000000000000000000000000000000000000000000000000000000000000000000000000000000000000000000000000000000000000000000000000000000000000000000000000000000000000000000000000000000000000000000000000000000000000000000000000000000000000000000000000000000000000000000000000000000000000000000000000000000000000000000000000000000000000000000000000000000000000000000000000000000000000000000000000000000000000000000000000000000000000000000000000000000000000000000000000000000000000000000000000000000000000000000000000000000000000000000000000000000000000000000000000000000000000000000000000000000000000000000000000000000000000000000000000000000000000000000000000000000000000000000000000000000000000000000000000000000000000000000000000000000000000000000000000000000000000000000000000000000000000000000000000000000000000000000000000000000000000000000000000000000000000000000000000000000000000000000000000000000000000000000000000000000000000000000000000000000000000000000000000000000000000000000000000000000000000000000000000000000000000000000000000000000000000000000000000000000000000000000000000000000000000000000000000000000000000000000000000000000000000000000000000000000000000000000000000000000000000000000000000000000000000000000000000000000000000000000000000000000000000000000000000000000000000000000000000000000000000000000000000000000000000000000000000000000000000000000000000000000000000000000000000000000000000000000000000000000000000000000000000000000000000000000000000000000000000000000000000000000000000000000000000000000000000000000000000000000000000000000000000000000000000000000000000000000000000000000000000000000000000000000000000000000000000000000000000000000000000000000000000000000000000000000000000000000000000000000000000000000000000000000000000000000000000000000000000000000000000000000000000000000000000000000000000000000000000000000000000000000000000000000000 >
0v
0z
0~
0,!
00
01
02
05
#950000
1v
10
#950001
18
#950003
16
#955000
b100101 "
b100110 "
b100111 "
b101000 "
12!
16!
1:!
1>!
11!
05!
19!
0=!
#957000
0>!
0:!
06!
02!
x=!
x9!
x5!
x1!
#1000000
b1010 :
b1010 <
b100000001100010011000100110101000000000000000000000000000000000000000000000000000000000000000000000000000000000000000000000000000000000000000000000000000000000000000000000000000000000000000000000000000000000000000000000000000000000000000000000000000000000000000000000000000000000000000000000000000000000000000000000000000000000000000000000000000000000000000000000000000000000000000000000000000000000000000000000000000000000000000000000000000000000000000000000000000000000000000000000000000000000000000000000000000000000000000000000000000000000000000000000000000000000000000000000000000000000000000000000000000000000000000000000000000000000000000000000000000000000000000000000000000000000000000000000000000000000000000000000000000000000000000000000000000000000000000000000000000000000000000000000000000000000000000000000000000000000000000000000000000000000000000000000000000000000000000000000000000000000000000000000000000000000000000000000000000000000000000000000000000000000000000000000000000000000000000000000000000000000000000000000000000000000000000000000000000000000000000000000000000000000000000000000000000000000000000000000000000000000000000000000000000000000000000000000000000000000000000000000000000000000000000000000000000000000000000000000000000000000000000000000000000000000000000000000000000000000000000000000000000000000000000000000000000000000000000000000000000000000000000000000000000000000000000000000000000000000000000000000000000000000000000000000000000000000000000000000000000000000000000000000000000000000000000000000000000000000000000000000000000000000000000000000000000000000000000000000000000000000000000000000000000000000000000000000000000000000000000000000000000000000000000000000000000000000000000000000000000000000000000000000000000000000000000000000000000000000000000000000000000000000000000000000000000000000000000000000000000000000000000000000000000000000000000000000000000000000000000000000000000000000000000000000000000000000000000000000000000000000000000000000000000000000000000000000000000000000000000000000000 >
0v
1(!
1,!
00
14
15
#1050000
1v
10
19
#1050003
06
#1055000
b101001 "
b101010 "
b101011 "
b101100 "
12!
16!
1:!
1>!
01!
05!
19!
1=!
#1057000
0>!
0:!
06!
02!
x=!
x9!
x5!
x1!
#1100000
b1011 :
b1011 <
b100000001100010011001000110101000000000000000000000000000000000000000000000000000000000000000000000000000000000000000000000000000000000000000000000000000000000000000000000000000000000000000000000000000000000000000000000000000000000000000000000000000000000000000000000000000000000000000000000000000000000000000000000000000000000000000000000000000000000000000000000000000000000000000000000000000000000000000000000000000000000000000000000000000000000000000000000000000000000000000000000000000000000000000000000000000000000000000000000000000000000000000000000000000000000000000000000000000000000000000000000000000000000000000000000000000000000000000000000000000000000000000000000000000000000000000000000000000000000000000000000000000000000000000000000000000000000000000000000000000000000000000000000000000000000000000000000000000000000000000000000000000000000000000000000000000000000000000000000000000000000000000000000000000000000000000000000000000000000000000000000000000000000000000000000000000000000000000000000000000000000000000000000000000000000000000000000000000000000000000000000000000000000000000000000000000000000000000000000000000000000000000000000000000000000000000000000000000000000000000000000000000000000000000000000000000000000000000000000000000000000000000000000000000000000000000000000000000000000000000000000000000000000000000000000000000000000000000000000000000000000000000000000000000000000000000000000000000000000000000000000000000000000000000000000000000000000000000000000000000000000000000000000000000000000000000000000000000000000000000000000000000000000000000000000000000000000000000000000000000000000000000000000000000000000000000000000000000000000000000000000000000000000000000000000000000000000000000000000000000000000000000000000000000000000000000000000000000000000000000000000000000000000000000000000000000000000000000000000000000000000000000000000000000000000000000000000000000000000000000000000000000000000000000000000000000000000000000000000000000000000000000000000000000000000000000000000000000000000000000000000000 >
0v
0(!
00
04
#1150000
1v
10
09
#1150001
17
#1150003
16
#1155000
b101101 "
b101110 "
b101111 "
b110000 "
12!
16!
1:!
1>!
11!
15!
19!
0=!
#1157000
0>!
0:!
06!
02!
x=!
x9!
x5!
x1!
#1200000
b1100 :
b1100 <
b100000001100010011001100110101000000000000000000000000000000000000000000000000000000000000000000000000000000000000000000000000000000000000000000000000000000000000000000000000000000000000000000000000000000000000000000000000000000000000000000000000000000000000000000000000000000000000000000000000000000000000000000000000000000000000000000000000000000000000000000000000000000000000000000000000000000000000000000000000000000000000000000000000000000000000000000000000000000000000000000000000000000000000000000000000000000000000000000000000000000000000000000000000000000000000000000000000000000000000000000000000000000000000000000000000000000000000000000000000000000000000000000000000000000000000000000000000000000000000000000000000000000000000000000000000000000000000000000000000000000000000000000000000000000000000000000000000000000000000000000000000000000000000000000000000000000000000000000000000000000000000000000000000000000000000000000000000000000000000000000000000000000000000000000000000000000000000000000000000000000000000000000000000000000000000000000000000000000000000000000000000000000000000000000000000000000000000000000000000000000000000000000000000000000000000000000000000000000000000000000000000000000000000000000000000000000000000000000000000000000000000000000000000000000000000000000000000000000000000000000000000000000000000000000000000000000000000000000000000000000000000000000000000000000000000000000000000000000000000000000000000000000000000000000000000000000000000000000000000000000000000000000000000000000000000000000000000000000000000000000000000000000000000000000000000000000000000000000000000000000000000000000000000000000000000000000000000000000000000000000000000000000000000000000000000000000000000000000000000000000000000000000000000000000000000000000000000000000000000000000000000000000000000000000000000000000000000000000000000000000000000000000000000000000000000000000000000000000000000000000000000000000000000000000000000000000000000000000000000000000000000000000000000000000000000000000000000000000000000000000000000 >
0v
0,!
00
05
#1250000
1v
10
#1255000
b110001 "
b110010 "
b110011 "
b110100 "
12!
16!
1:!
1>!
11!
15!
19!
0=!
#1257000
0>!
0:!
06!
02!
x=!
x9!
x5!
x1!
#1300000
b1101 :
b1101 <
b100000001100010011010000110101000000000000000000000000000000000000000000000000000000000000000000000000000000000000000000000000000000000000000000000000000000000000000000000000000000000000000000000000000000000000000000000000000000000000000000000000000000000000000000000000000000000000000000000000000000000000000000000000000000000000000000000000000000000000000000000000000000000000000000000000000000000000000000000000000000000000000000000000000000000000000000000000000000000000000000000000000000000000000000000000000000000000000000000000000000000000000000000000000000000000000000000000000000000000000000000000000000000000000000000000000000000000000000000000000000000000000000000000000000000000000000000000000000000000000000000000000000000000000000000000000000000000000000000000000000000000000000000000000000000000000000000000000000000000000000000000000000000000000000000000000000000000000000000000000000000000000000000000000000000000000000000000000000000000000000000000000000000000000000000000000000000000000000000000000000000000000000000000000000000000000000000000000000000000000000000000000000000000000000000000000000000000000000000000000000000000000000000000000000000000000000000000000000000000000000000000000000000000000000000000000000000000000000000000000000000000000000000000000000000000000000000000000000000000000000000000000000000000000000000000000000000000000000000000000000000000000000000000000000000000000000000000000000000000000000000000000000000000000000000000000000000000000000000000000000000000000000000000000000000000000000000000000000000000000000000000000000000000000000000000000000000000000000000000000000000000000000000000000000000000000000000000000000000000000000000000000000000000000000000000000000000000000000000000000000000000000000000000000000000000000000000000000000000000000000000000000000000000000000000000000000000000000000000000000000000000000000000000000000000000000000000000000000000000000000000000000000000000000000000000000000000000000000000000000000000000000000000000000000000000000000000000000000000000000000000000 >
0v
1~
0$!
1(!
00
12
03
14
#1350000
1v
10
19
#1350001
07
08
#1355000
b110101 "
b110110 "
b110111 "
b111000 "
12!
16!
1:!
1>!
11!
05!
09!
1=!
#1357000
0>!
0:!
06!
02!
x=!
x9!
x5!
x1!
